{
  "project_info": {
    "project_number": "877388749488",
    "firebase_url": "https://project-2bec4.firebaseio.com",
    "project_id": "project-2bec4",
    "storage_bucket": "project-2bec4.appspot.com"
  },
  "client": [
    {
      "client_info": {
        "mobilesdk_app_id": "1:877388749488:android:d387f908e730a992",
        "android_client_info": {
          "package_name": "id.or.ekayana.ekayanaarama"
        }
      },
      "oauth_client": [
        {
          "client_id": "877388749488-c47ku817r1qgjrerhf8nt8qmtga7mj0t.apps.googleusercontent.com",
          "client_type": 3
        }
      ],
      "api_key": [
        {
          "current_key": "AIzaSyAzKJWsUTSGhUkbBV9H089YPkWzvxpPyTQ"
        }
      ],
      "services": {
        "analytics_service": {
          "status": 1
        },
        "appinvite_service": {
          "status": 1,
          "other_platform_oauth_client": []
        },
        "ads_service": {
          "status": 2
        }
      }
    },
    {
      "client_info": {
        "mobilesdk_app_id": "1:877388749488:android:83f33c67e14c3959",
        "android_client_info": {
          "package_name": "id.or.ekayana.ekayanaarama.debug"
        }
      },
      "oauth_client": [
        {
          "client_id": "877388749488-c47ku817r1qgjrerhf8nt8qmtga7mj0t.apps.googleusercontent.com",
          "client_type": 3
        }
      ],
      "api_key": [
        {
          "current_key": "AIzaSyAzKJWsUTSGhUkbBV9H089YPkWzvxpPyTQ"
        }
      ],
      "services": {
        "analytics_service": {
          "status": 1
        },
        "appinvite_service": {
          "status": 1,
          "other_platform_oauth_client": []
        },
        "ads_service": {
          "status": 2
        }
      }
    }
  ],
  "configuration_version": "1"
}